Data Analytics for Clinical Practice and Research
…
It is important to highlight the area under a ROC result: 0.85, which can be interpreted as good. This means that we can proceed to a classification process with this model.

#predictions <- predict(quick_models)
predictions

## # A tibble: 768 x 14
##    diabetes predicted_diabetes pregnancies plasma_glucose diastolic_bp
##  * <fct>                 <dbl>       <int>          <dbl>        <dbl>
##  1 Y                   0.653             6            148         72  
##  2 N                   0.128             1             85         66  
##  3 Y                   0.654             8            183         64  
##  4 N                   0.00936           1             89         66  
##  5 Y                   0.495             0            137         40  
##  6 N                   0.257             5            116         74  
##  7 Y                   0.0379            3             78         50  
##  8 N                   0.577            10            115         72.4
##  9 Y                   0.744             2            197         70  
## 10 Y                   0.348             8            125         96  
## # ... with 758 more rows, and 9 more variables: skinfold <dbl>,
## #   insulin <dbl>, pedigree <dbl>, age <int>, weight_class_normal <dbl>,
## #   weight_class_obese <dbl>, weight_class_overweight <dbl>,
## #   weight_class_other <dbl>, weight_class_missing <dbl>
…
